{
	"ImportPath": "bitbucket.org/HnH/damigaming",
	"GoVersion": "go1.8",
	"Deps": [
		{
			"ImportPath": "bitbucket.org/liflandgaming/platform-sdk",
			"Rev": "edf8c84052d8ba1ba4c323e7f2d69ee93acc7a97"
		},
		{
			"ImportPath": "github.com/gin-gonic/gin",
			"Comment": "v1.1.4",
			"Rev": "e2212d40c62a98b388a5eb48ecbdcf88534688ba"
		},
		{
			"ImportPath": "github.com/go-resty/resty",
			"Comment": "v0.12",
			"Rev": "7a8134d8718193eb857994adee49d73a302e7718"
		},
		{
			"ImportPath": "github.com/golang/protobuf/proto",
			"Rev": "c9c7427a2a70d2eb3bafa0ab2dc163e45f143317"
		},
		{
			"ImportPath": "github.com/manucorporat/sse",
			"Rev": "ee05b128a739a0fb76c7ebd3ae4810c1de808d6d"
		},
		{
			"ImportPath": "github.com/mattn/go-isatty",
			"Comment": "v0.0.1-30-g57fdcb9",
			"Rev": "57fdcb988a5c543893cc61bce354a6e24ab70022"
		},
		{
			"ImportPath": "golang.org/x/net/context",
			"Rev": "a6577fac2d73be281a500b310739095313165611"
		},
		{
			"ImportPath": "golang.org/x/net/publicsuffix",
			"Rev": "a6577fac2d73be281a500b310739095313165611"
		},
		{
			"ImportPath": "gopkg.in/go-playground/validator.v8",
			"Comment": "v8.18.1",
			"Rev": "5f57d2222ad794d0dffb07e664ea05e2ee07d60c"
		},
		{
			"ImportPath": "gopkg.in/yaml.v2",
			"Rev": "a3f3340b5840cee44f372bddb5880fcbc419b46a"
		}
	]
}
